<?xml version="1.0" encoding="UTF-8"?>
<gpx xmlns="http://www.topografix.com/GPX/1/1" xmlns:xsi="http://www.w3.org/2001/XMLSchema-instance" xsi:schemaLocation="http://www.topografix.com/GPX/1/1 http://www.topografix.com/GPX/1/1/gpx.xsd" version="1.1" creator="gpx.py -- https://github.com/tkrajina/gpxpy">
  <trk>
    <trkseg>
      <trkpt lat="28.8611027778" lon="-13.8577111111">
        <ele>19</ele>
      </trkpt>
      <trkpt lat="59.912025" lon="10.7506555556">
        <ele>64</ele>
      </trkpt>
      <trkpt lat="59.90805" lon="10.7220416667">
        <ele>0</ele>
      </trkpt>
      <trkpt lat="59.9641694444" lon="10.6672416667">
        <ele>392</ele>
      </trkpt>
      <trkpt lat="60.3949305556" lon="5.32856388889">
        <ele>0</ele>
      </trkpt>
      <trkpt lat="60.3969694444" lon="5.32293055556">
        <ele>0</ele>
      </trkpt>
      <trkpt lat="55.6270861111" lon="8.11681111111">
        <ele>2</ele>
      </trkpt>
      <trkpt lat="55.6792805556" lon="12.5718055556">
        <ele>14</ele>
      </trkpt>
      <trkpt lat="55.3327916667" lon="10.9677277778">
        <ele>30</ele>
      </trkpt>
      <trkpt lat="55.7086111111" lon="9.53286666667">
        <ele>16</ele>
      </trkpt>
      <trkpt lat="51.5182888889" lon="-0.491466666667">
        <ele>151</ele>
      </trkpt>
      <trkpt lat="13.739375" lon="100.557877778">
        <ele>95</ele>
      </trkpt>
      <trkpt lat="12.5248611111" lon="99.9730388889">
        <ele>10</ele>
      </trkpt>
      <trkpt lat="17.3993333333" lon="104.800452778">
        <ele>130</ele>
      </trkpt>
      <trkpt lat="13.7403138889" lon="100.496011111">
        <ele>4</ele>
      </trkpt>
      <trkpt lat="17.2980777778" lon="104.727463889">
        <ele>1042</ele>
      </trkpt>
    </trkseg>
  </trk>
</gpx>